<?xml version="1.0" encoding="UTF-8" standalone="no"?>
<svg
   width="128"
   height="128"
   version="1.1"
   id="svg4"
   sodipodi:docname="ruler-symbolic.svg"
   inkscape:version="1.1 (c68e22c387, 2021-05-23)"
   xmlns:inkscape="http://www.inkscape.org/namespaces/inkscape"
   xmlns:sodipodi="http://sodipodi.sourceforge.net/DTD/sodipodi-0.dtd"
   xmlns="http://www.w3.org/2000/svg"
   xmlns:svg="http://www.w3.org/2000/svg">
  <defs
     id="defs8" />
  <sodipodi:namedview
     id="namedview6"
     pagecolor="#ffffff"
     bordercolor="#666666"
     borderopacity="1.0"
     inkscape:pageshadow="2"
     inkscape:pageopacity="0.0"
     inkscape:pagecheckerboard="0"
     showgrid="false"
     inkscape:zoom="6.0625"
     inkscape:cx="63.917526"
     inkscape:cy="64"
     inkscape:window-width="1920"
     inkscape:window-height="1011"
     inkscape:window-x="0"
     inkscape:window-y="0"
     inkscape:window-maximized="1"
     inkscape:current-layer="svg4" />
  <path
     d="M13.973 21.122c-2.069.225-3.141.538-5.12 1.494-3.119 1.508-5.444 3.867-7.041 7.144C.107 33.26.193 31.315.26 64.747L.32 94.4l.501 1.493c1.694 5.048 4.995 8.488 9.886 10.302l1.56.578 51.306.063c46.862.057 51.436.032 52.8-.286 5.154-1.204 9.469-5.265 11.122-10.469L128 94.49V64.014c0-30.424-.001-30.478-.451-31.938-1.295-4.198-4.179-7.622-7.976-9.468-3.556-1.73 1.578-1.577-54.293-1.615-27.397-.018-50.485.04-51.307.129m4.16 28.863V67.33l.53 1.055c1.405 2.8 5.117 2.989 6.673.341l.584-.993.058-17.546.058-17.547H37.973l.005 17.013c.004 16.045.027 17.063.396 17.876 1.59 3.5 6.396 2.997 7.262-.76.141-.612.222-6.918.225-17.542l.006-16.587H58.24v23.855c0 26.449-.067 25.162 1.406 26.883 2.73 3.19 7.666 2.607 9.578-1.132l.643-1.256.057-24.175.058-24.175H81.487l.056 19.253c.055 18.447.074 19.288.464 20.073.535 1.079 1.779 1.884 3.104 2.012 1.873.18 3.51-1.011 4.068-2.958.128-.445.208-7.99.208-19.552V32.64h13.433l.057 19.253c.054 18.523.072 19.285.468 20.082.58 1.169 2.031 2.052 3.372 2.052 1.814 0 3.157-.984 3.757-2.752.178-.526.246-5.935.246-19.708V32.585l1.695.098c2.018.117 3.16.735 3.847 2.082.426.835.431 1.173.431 29.235 0 28.062-.005 28.4-.431 29.235-.237.464-.83 1.109-1.317 1.431l-.887.587H14.33l-.903-.64c-.497-.352-1.081-.974-1.298-1.383-.38-.713-.396-1.903-.396-29.194 0-25.306.037-28.529.332-29.151.741-1.56 2.077-2.221 4.522-2.236l1.546-.009v17.345"
     fill-rule="evenodd"
     id="path2" color="#000" overflow="visible" fill="#2e3436" />
</svg>
