[
	{
		"id": "womens",
		"name": "Womens",
		"measurements": [
			{
				"name": "Bust",
				"id": "bust"
			},
			{
				"name": "Waist",
				"id": "Waist"
			},
			{
				"name": "Hips",
				"id": "hips"
			},
			{
				"name": "Back Length",
				"id": "back_length"
			},
			{
				"name": "Outseam",
				"id": "outseam"
			},
			{
				"name": "Height",
				"id": "height"
			}
		]
	},
	{
		"id": "womens_extended",
		"name": "Womens Extended",
		"measurements": [
			{
				"name": "Bust",
				"id": "bust"
			},
			{
				"name": "Underbust",
				"id": "underbust"
			},
			{
				"name": "Bust Height",
				"id": "bust_height"
			},
			{
				"name": "Waist",
				"id": "Waist"
			},
			{
				"name": "Hips",
				"id": "hips"
			},
			{
				"name": "Back Length",
				"id": "back_length"
			},
			{
				"name": "Arm Length",
				"id": "arm_length"
			},
			{
				"name": "Outseam",
				"id": "outseam"
			},
			{
				"name": "Inseam",
				"id": "inseam"
			},
			{
				"name": "Rise",
				"id": "rises"
			},
			{
				"name": "Height",
				"id": "height"
			},
			{
				"name": "Bicep",
				"id": "bicep"
			},
			{
				"name": "Wrist",
				"id": "wrist"
			},
			{
				"name": "Thigh",
				"id": "thigh"
			},
			{
				"name": "Calf",
				"id": "calf"
			},
			{
				"name": "Ankle",
				"id": "ankle"
			}
		]
	},
	
]
